<svg width="36" height="31" viewBox="0 0 36 31" fill="none" xmlns="http://www.w3.org/2000/svg">
<path d="M30.3914 5.45361C30.2804 4.08656 29.7077 2.79791 28.7674 1.79943C27.7928 0.824818 26.4936 0.419004 25.0315 0.175075C23.3849 0.0269073 21.7311 -0.027268 20.0782 0.012819H10.9818C9.32898 -0.0256892 7.67529 0.0284832 6.02852 0.175075C4.66141 0.286506 3.37276 0.859282 2.37399 1.79943C1.31843 2.85499 0.912618 4.07317 0.749999 5.45361C0.506436 7.48378 0.587737 9.43265 0.587737 11.4628C0.595211 11.9774 0.802937 12.4687 1.16681 12.8326C1.53069 13.1965 2.02206 13.4042 2.53661 13.4117H28.6037C29.1182 13.4042 29.6096 13.1965 29.9734 12.8326C30.3373 12.4687 30.5451 11.9774 30.5525 11.4628C30.6625 9.4587 30.6086 7.44895 30.3914 5.45361ZM7.65398 8.45693C7.45133 8.45708 7.25066 8.41728 7.0634 8.33981C6.87615 8.26233 6.706 8.14871 6.56269 8.00544C6.41938 7.86216 6.30571 7.69204 6.2282 7.50481C6.15068 7.31757 6.11084 7.11689 6.11094 6.91425C6.11079 6.71157 6.1506 6.51085 6.2281 6.32357C6.30559 6.1363 6.41924 5.96614 6.56256 5.82282C6.70587 5.67951 6.87604 5.56585 7.06331 5.48836C7.25059 5.41086 7.4513 5.37105 7.65398 5.3712C7.85666 5.37105 8.05738 5.41086 8.24466 5.48836C8.43193 5.56585 8.60209 5.67951 8.7454 5.82282C8.88872 5.96614 9.00238 6.1363 9.07987 6.32357C9.15737 6.51085 9.19718 6.71157 9.19704 6.91425C9.19728 7.11699 9.15754 7.31778 9.08009 7.50514C9.00264 7.6925 8.889 7.86275 8.74567 8.00615C8.60235 8.14954 8.43215 8.26326 8.24483 8.3408C8.0575 8.41833 7.85672 8.45817 7.65398 8.45803V8.45693ZM20.2409 7.89143C20.2432 8.06273 20.2112 8.23278 20.1468 8.39151C20.0823 8.55024 19.9867 8.69443 19.8655 8.81558C19.7444 8.93672 19.6002 9.03235 19.4414 9.09682C19.2827 9.16129 19.1127 9.19328 18.9414 9.19092C18.7701 9.19323 18.6001 9.1612 18.4414 9.09671C18.2827 9.03222 18.1386 8.93658 18.0175 8.81544C17.8963 8.6943 17.8008 8.55012 17.7363 8.39142C17.6719 8.23271 17.6399 8.0627 17.6422 7.89143V6.18613C17.6399 6.01488 17.672 5.84491 17.7364 5.68625C17.8009 5.52758 17.8965 5.38344 18.0176 5.26235C18.1387 5.14125 18.2828 5.04564 18.4415 4.98117C18.6001 4.91671 18.7701 4.88468 18.9414 4.887C19.1126 4.88463 19.2827 4.91662 19.4414 4.98107C19.6001 5.04551 19.7442 5.14111 19.8654 5.26221C19.9865 5.38332 20.0822 5.52747 20.1466 5.68616C20.2111 5.84484 20.2432 6.01485 20.2409 6.18613V7.89143ZM24.3012 7.89143C24.3036 8.06273 24.2716 8.23278 24.2071 8.39151C24.1426 8.55024 24.047 8.69443 23.9259 8.81558C23.8047 8.93672 23.6605 9.03235 23.5018 9.09682C23.3431 9.16129 23.173 9.19328 23.0017 9.19092C22.8304 9.19323 22.6604 9.1612 22.5017 9.09671C22.3431 9.03222 22.1989 8.93658 22.0778 8.81544C21.9567 8.6943 21.8611 8.55012 21.7967 8.39142C21.7322 8.23271 21.7002 8.0627 21.7026 7.89143V6.18613C21.6935 6.01312 21.7208 5.84013 21.7829 5.67838C21.8449 5.51663 21.9403 5.36974 22.0628 5.24723C22.1853 5.12473 22.3322 5.02935 22.494 4.96729C22.6557 4.90523 22.8287 4.87788 23.0017 4.887C23.173 4.88463 23.343 4.91662 23.5017 4.98107C23.6604 5.04551 23.8046 5.14111 23.9257 5.26221C24.0469 5.38332 24.1425 5.52747 24.207 5.68616C24.2715 5.84484 24.3035 6.01485 24.3012 6.18613V7.89143Z" fill="#55768B"/>
<path d="M19.0214 15.8802H2.53682C2.0095 15.8706 1.49983 16.0702 1.11936 16.4355C0.738877 16.8007 0.51857 17.3018 0.506647 17.8291C0.506647 19.8593 0.425335 21.8081 0.831516 23.8383C0.94267 25.2053 1.51534 26.4939 2.45551 27.4925C3.43012 28.5484 4.72925 28.9542 6.10969 29.1168C7.75648 29.265 9.41038 29.3192 11.0633 29.2791H13.4997C13.6825 29.2756 13.8619 29.2284 14.0228 29.1415C14.1837 29.0546 14.3216 28.9306 14.4248 28.7796C14.5281 28.6287 14.5938 28.4553 14.6165 28.2738C14.6392 28.0924 14.6182 27.9081 14.5553 27.7364C14.3955 27.2655 14.3132 26.7719 14.3117 26.2747C14.3117 22.8641 17.2348 21.9707 18.453 21.6459C18.5504 21.6133 18.7779 21.5646 18.7779 21.5646C18.7779 20.1841 19.3463 18.8037 19.996 17.6668C20.1076 17.4915 20.1701 17.2895 20.1771 17.0818C20.1841 16.8742 20.1353 16.6684 20.0358 16.486C19.9363 16.3036 19.7897 16.1512 19.6113 16.0446C19.4329 15.9381 19.2292 15.8813 19.0214 15.8802ZM7.65273 23.9196C7.23514 23.9019 6.84079 23.7226 6.55289 23.4196C6.26499 23.1166 6.10608 22.7136 6.10969 22.2956C6.10954 22.0929 6.14935 21.8922 6.22685 21.7049C6.30434 21.5177 6.41799 21.3475 6.56131 21.2042C6.70462 21.0609 6.87479 20.9472 7.06206 20.8697C7.24934 20.7922 7.45005 20.7524 7.65273 20.7526C8.07032 20.7703 8.46468 20.9496 8.75258 21.2526C9.04048 21.5556 9.19939 21.9586 9.19579 22.3766C9.19593 22.5792 9.15612 22.78 9.07862 22.9672C9.00113 23.1545 8.88747 23.3247 8.74415 23.468C8.60084 23.6113 8.43068 23.725 8.24341 23.8024C8.05613 23.8799 7.85541 23.9198 7.65273 23.9196Z" fill="#55768B"/>
<path opacity="0.4" d="M30.7519 22.0444C30.6157 22.0469 30.6138 21.8653 30.5622 21.7393C30.1724 20.8009 29.5143 19.9985 28.6703 19.4326C27.8264 18.8667 26.8341 18.5626 25.818 18.5583C25.1565 18.5738 24.5046 18.7203 23.9001 18.9893C23.2956 19.2584 22.7505 19.6447 22.2963 20.1259C21.8421 20.6071 21.4879 21.1736 21.2541 21.7926C21.0203 22.4116 20.9116 23.0708 20.9343 23.7321C20.9348 23.7629 20.9232 23.7928 20.902 23.8152C20.8808 23.8375 20.8516 23.8507 20.8208 23.8519C19.9636 23.9083 19.1616 24.2946 18.5831 24.9297C18.0047 25.5648 17.6948 26.3994 17.7186 27.2581C17.7274 28.1372 18.0846 28.9769 18.7119 29.5928C19.3392 30.2088 20.1852 30.5506 21.0643 30.5434L30.9145 30.587C32.0302 30.5378 33.0828 30.056 33.8493 29.2438C34.6157 28.4316 35.0358 27.3529 35.0203 26.2362C35.0164 25.6804 34.9028 25.1308 34.686 24.6189C34.4692 24.1071 34.1534 23.6432 33.7568 23.2537C33.3602 22.8642 32.8906 22.5569 32.375 22.3494C31.8593 22.1418 31.3077 22.0382 30.7519 22.0444Z" fill="#55768B"/>
</svg>
